<?xml version="1.0" standalone="no"?>
<!DOCTYPE svg PUBLIC "-//W3C//DTD SVG 20010904//EN"
 "http://www.w3.org/TR/2001/REC-SVG-20010904/DTD/svg10.dtd">
<svg version="1.0" xmlns="http://www.w3.org/2000/svg"
 width="440.000000pt" height="335.000000pt" viewBox="0 0 440.000000 335.000000"
 preserveAspectRatio="xMidYMid meet">
<metadata>
Created by potrace 1.13, written by Peter Selinger 2001-2015
</metadata>
<g transform="translate(0.000000,335.000000) scale(0.100000,-0.100000)"
fill="#000000" stroke="none">
<path d="M520 3136 c-216 -58 -290 -315 -139 -480 91 -100 229 -125 349 -63
l54 28 858 -858 c472 -472 858 -860 858 -863 0 -3 -7 -13 -15 -23 -13 -18 -60
4 -814 385 l-801 403 7 30 c5 17 8 59 8 95 -1 88 -38 166 -106 220 -62 49
-108 64 -190 64 -195 -1 -330 -187 -275 -379 23 -75 106 -163 180 -188 108
-37 215 -14 299 63 l52 48 800 -402 800 -401 -5 -30 c-32 -192 86 -350 270
-362 144 -10 279 91 305 230 l7 37 234 0 c179 0 235 -3 238 -12 32 -113 78
-178 156 -222 50 -28 63 -31 140 -31 77 0 90 3 140 31 210 118 201 409 -15
522 -71 37 -179 37 -250 0 -86 -45 -164 -147 -165 -215 l0 -23 -237 0 -238 0
-17 58 c-29 99 -108 172 -216 201 l-42 12 0 157 c0 86 3 194 6 239 l7 81 41
11 c124 31 215 149 216 282 0 75 -23 139 -71 193 -98 111 -264 134 -382 53
l-28 -19 -267 260 c-411 400 -399 388 -382 415 35 55 45 87 48 155 5 92 -15
149 -75 213 -113 121 -297 126 -417 11 -41 -39 -86 -122 -86 -159 l0 -23 -234
0 -235 0 -15 53 c-29 101 -107 177 -208 204 -63 16 -88 16 -148 -1z m170 -67
c25 -11 56 -30 69 -42 36 -34 71 -115 71 -168 0 -42 -4 -51 -37 -79 -49 -43
-92 -60 -153 -60 -121 0 -220 93 -223 209 -2 67 8 93 47 119 68 46 154 54 226
21z m1033 10 c111 -30 199 -194 148 -275 -11 -18 -42 -43 -72 -58 -116 -57
-243 -18 -302 94 -25 47 -28 64 -25 114 4 52 8 63 37 86 55 47 135 61 214 39z
m-355 -305 c34 -124 152 -214 281 -214 56 0 79 6 131 31 l62 32 328 -328 329
-329 -18 -25 c-32 -48 -46 -96 -45 -161 1 -116 62 -211 169 -262 33 -15 68
-28 78 -28 16 0 17 -16 15 -241 l-3 -242 -46 -11 c-25 -7 -60 -22 -77 -35
l-32 -23 -858 863 -858 863 27 50 c15 28 30 66 34 84 l7 32 231 -2 230 -3 15
-51z m-678 -775 c60 -27 88 -54 116 -114 47 -99 24 -169 -69 -214 -147 -71
-320 36 -320 199 0 72 12 93 75 124 64 32 134 34 198 5z m2111 9 c52 -15 117
-73 140 -122 10 -23 19 -64 19 -92 0 -47 -3 -55 -39 -87 -102 -92 -261 -71
-338 44 -21 33 -28 57 -31 109 -4 63 -2 70 24 99 49 54 142 75 225 49z m2
-1069 c49 -13 115 -73 138 -124 10 -22 19 -63 19 -91 0 -44 -4 -54 -32 -82
-114 -109 -303 -70 -363 75 -8 20 -15 60 -15 89 0 44 5 59 28 84 47 53 140 73
225 49z m1097 -16 c65 -35 106 -90 122 -166 15 -71 3 -98 -67 -141 -165 -104
-376 38 -341 229 18 92 176 135 286 78z"/>
</g>
</svg>
